{
	"nomes" : "Phylogeography of the lacertid lizard,Psammodromus algirus, in Iberia and across the Strait of Gibraltar", 
	"accession_number" : ["AY151917", "AY151915", "AY151916", "AY151923", "AY151924", "AY151921", "AY151922", "AY151920", "AY151918", "AY151919", "DQ298608", "DQ298606", "DQ298607", "DQ298605", "DQ298604", "DQ298602", "DQ298603", "DQ298653", "DQ298654", "DQ298651", "DQ298652", "DQ298650", "DQ298596", "DQ298597", "DQ298598", "DQ298600", "DQ298599", "DQ298624", "DQ298625", "DQ298626", "DQ298627", "DQ298618", "DQ298620", "DQ298636", "DQ298630", "DQ298628", "DQ298629", "DQ298631", "DQ298619", "DQ298601", "DQ298621", "DQ298622", "DQ298623", "DQ298637", "DQ298635", "DQ298632", "DQ298633", "DQ298634", "DQ298595", "DQ298594", "DQ298593", "DQ298586", "DQ298588", "DQ298585", "DQ298587", "DQ298589", "DQ298592", "DQ298590", "DQ298591", "DQ298611", "DQ298612", "DQ298616", "DQ298615", "DQ298617", "DQ298610", "DQ298609", "DQ298613", "DQ298614", "DQ298638", "DQ298639", "DQ298647", "DQ298648", "DQ298646", "DQ298645", "DQ298644", "DQ298640", "DQ298642", "DQ298643", "DQ298641", "DQ298649 "],
	"autores" : "S.Carranza D.J.Harris, E.N. Arnold, V.Batista, J.P.Gonzalez de la Vega",
	"link" : " https://doi.org/10.1111/j.1365-2699.2006.01491.x",
	"outgroup" : "Gallotia stehlini, AY151917",
	"gene" : "12S"
	
	
}

